%YAML 1.1
%TAG !u! tag:unity3d.com,2011:
--- !u!114 &11400000
MonoBehaviour:
  m_ObjectHideFlags: 0
  m_CorrespondingSourceObject: {fileID: 0}
  m_PrefabInstance: {fileID: 0}
  m_PrefabAsset: {fileID: 0}
  m_GameObject: {fileID: 0}
  m_Enabled: 1
  m_EditorHideFlags: 0
  m_Script: {fileID: 11500000, guid: 9ca9ade05d0625440a70f329d47e71f3, type: 3}
  m_Name: Alzamiento Valkyria
  m_EditorClassIdentifier: 
  nombre: Alzamiento de Valkyria
  descripcion: Las valkyrias te otorgan 200 de defensa mientras te observan en las
    puertas de Asgard
  imagen: {fileID: 2800000, guid: 07c7c501399a1ca428d88418a6e80106, type: 3}
  tipo: {fileID: 2800000, guid: c2ac38d2d0d4bfa4b8f421efa6e6d435, type: 3}
  coste: 10
  "da\xF1o": 0
  defensa: 200
  curacion: 0
  hpAumen: 0
  PierdTurnoEnemy: 0
  PierdTurnoTu: 0
  Pifia: 0
  Loki: 0
  Manzana: 0
  freecard: 0
  SacaCartas: 0
  RecuperaMana: 0
