%YAML 1.1
%TAG !u! tag:unity3d.com,2011:
--- !u!114 &11400000
MonoBehaviour:
  m_ObjectHideFlags: 0
  m_CorrespondingSourceObject: {fileID: 0}
  m_PrefabInstance: {fileID: 0}
  m_PrefabAsset: {fileID: 0}
  m_GameObject: {fileID: 0}
  m_Enabled: 1
  m_EditorHideFlags: 0
  m_Script: {fileID: 11500000, guid: 9ca9ade05d0625440a70f329d47e71f3, type: 3}
  m_Name: "Enga\xF1o de Loki"
  m_EditorClassIdentifier: 
  nombre: "Enga\xF1o de Loki"
  descripcion: Recuperas un 10% de tu vida maxima y te conviertes en trapito
  imagen: {fileID: 2800000, guid: bcd00390e481a9c429e6a986f433b67b, type: 3}
  tipo: {fileID: 2800000, guid: c2ac38d2d0d4bfa4b8f421efa6e6d435, type: 3}
  coste: 2
  "da\xF1o": 0
  defensa: 0
  curacion: 0
  hpAumen: 0
  PierdTurnoEnemy: 0
  PierdTurnoTu: 0
  Pifia: 0
  Loki: 1
  Manzana: 0
  freecard: 0
  SacaCartas: 0
  RecuperaMana: 0
