%YAML 1.1
%TAG !u! tag:unity3d.com,2011:
--- !u!114 &11400000
MonoBehaviour:
  m_ObjectHideFlags: 0
  m_CorrespondingSourceObject: {fileID: 0}
  m_PrefabInstance: {fileID: 0}
  m_PrefabAsset: {fileID: 0}
  m_GameObject: {fileID: 0}
  m_Enabled: 1
  m_EditorHideFlags: 0
  m_Script: {fileID: 11500000, guid: 9ca9ade05d0625440a70f329d47e71f3, type: 3}
  m_Name: Hachazo
  m_EditorClassIdentifier: 
  nombre: Hachazo
  descripcion: "Infliges 30 de da\xF1o con tu hacha del chino que te regalo tu madre"
  imagen: {fileID: 2800000, guid: 6796aecef28dc644495d516dd3504a66, type: 3}
  tipo: {fileID: 2800000, guid: c2ac38d2d0d4bfa4b8f421efa6e6d435, type: 3}
  coste: 4
  "da\xF1o": 30
  defensa: 0
  curacion: 0
  hpAumen: 0
  PierdTurnoEnemy: 0
  PierdTurnoTu: 0
  Pifia: 0
  Loki: 0
  Manzana: 0
  freecard: 0
  SacaCartas: 0
  RecuperaMana: 0
