%YAML 1.1
%TAG !u! tag:unity3d.com,2011:
--- !u!114 &11400000
MonoBehaviour:
  m_ObjectHideFlags: 0
  m_CorrespondingSourceObject: {fileID: 0}
  m_PrefabInstance: {fileID: 0}
  m_PrefabAsset: {fileID: 0}
  m_GameObject: {fileID: 0}
  m_Enabled: 1
  m_EditorHideFlags: 0
  m_Script: {fileID: 11500000, guid: 9ca9ade05d0625440a70f329d47e71f3, type: 3}
  m_Name: Manzana
  m_EditorClassIdentifier: 
  nombre: Manzana de la Discordia
  descripcion: "Confundes al enemigo haciendo que se haga 40 de da\xF1o a si mismo
    y pierda turno.(Matenme please) "
  imagen: {fileID: 2800000, guid: 2f1ef3f8ffe8f7349b86780f6a9d6928, type: 3}
  tipo: {fileID: 2800000, guid: 66bf6f9a64191cb4b8495e9faf7cd44a, type: 3}
  coste: 5
  "da\xF1o": 0
  defensa: 0
  curacion: 0
  hpAumen: 0
  PierdTurnoEnemy: 0
  PierdTurnoTu: 0
  Pifia: 0
  Loki: 0
  Manzana: 1
  freecard: 0
  Esquive: 0
  SacaCartas: 0
  RecuperaMana: 0
